Moneyball Application: Application of a linear regression model to basketball statistics
…
Given the versatality and interchangeable positions of the PF and SG, it has been decided that we will take 4 players from each of the position.

Firstly, lets look at including the player salary to their object. We can complete this by using the right_join() function:

players <- salary %>%
  select(player, salary) %>%
  right_join(players, by = "player")

We then group the players based on their position by using the filter() function:

## PG
players_PG <- filter(players, Pos == "PG")
players_PG

## # A tibble: 139 x 46
##    player     salary Pos     Age Tm        G    GS    MP    FG   FGA   FGp   x3P
##    <chr>       <dbl> <chr> <dbl> <chr> <dbl> <dbl> <dbl> <dbl> <dbl> <dbl> <dbl>
##  1 Aaron Hol~ 1.91e6 PG       22 IND      50     0   646   105   262 0.401    43
##  2 Alex Caru~ 7.72e4 PG       24 LAL      25     4   531    77   173 0.445    24
##  3 Andrew Ha~ 3.54e5 PG       24 MEM       1     0     5     1     2 0.5       0
##  4 Andrew Ha~ 3.54e5 PG       24 NOP       6     0    38     3    12 0.25      2
##  5 Andrew Ha~ 3.54e5 PG       24 CLE      10     0   144    12    39 0.308     3
##  6 Andrew Ha~ 3.54e5 PG       24 TOT      17     0   187    16    53 0.302     5
##  7 Ben Simmo~ 6.43e6 PG       22 PHI      79    79  2700   540   960 0.563     0
##  8 Brad Wana~ 8.38e5 PG       29 BOS      36     0   343    50   105 0.476    16
##  9 Brandon G~ 5.68e4 PG       23 DEN      16     0    57     6    23 0.261     2
## 10 Brandon K~ 1.46e7 PG       27 HOU      12     0   118    11    47 0.234     5
## # ... with 129 more rows, and 34 more variables: x3PA <dbl>, x3Pp <dbl>,
## #   x2P <dbl>, x2PA <dbl>, x2Pp <dbl>, eFGp <dbl>, FT <dbl>, FTA <dbl>,
## #   FTp <dbl>, ORB <dbl>, DRB <dbl>, TRB <dbl>, AST <dbl>, STL <dbl>,
## #   BLK <dbl>, TOV <dbl>, PF <dbl>, PTS <dbl>, PTS_per_min <dbl>,
## #   PPM_category <chr>, FG_z <dbl>, FG_category <chr>, RB_per_game <dbl>,
## #   RB_category <chr>, TOV_per_game <dbl>, TOV_category <chr>,
## #   AST_per_game <dbl>, AST_category <chr>, FG_per_game <dbl>,
## #   x3P_per_game <dbl>, x2P_per_game <dbl>, FT_per_game <dbl>,
## #   PTS_per_game <dbl>, exp_PTS <dbl>

## SG
players_SG <- filter(players, Pos == "SG")
players_SG

## # A tibble: 176 x 46
##    player     salary Pos     Age Tm        G    GS    MP    FG   FGA   FGp   x3P
##    <chr>       <dbl> <chr> <dbl> <chr> <dbl> <dbl> <dbl> <dbl> <dbl> <dbl> <dbl>
##  1 Alec Burks 1.15e7 SG       27 SAC      13     0   127     9    20 0.45      0
##  2 Alec Burks 1.15e7 SG       27 UTA      17     0   269    47   114 0.412    16
##  3 Alec Burks 1.15e7 SG       27 CLE      34    24   979   136   340 0.4      45
##  4 Alec Burks 1.15e7 SG       27 TOT      64    24  1375   192   474 0.405    61
##  5 Alex Abri~ 3.67e6 SG       25 OKC      31     2   588    56   157 0.357    41
##  6 Allen Cra~ 1.93e7 SG       26 BRK      43    20  1133   137   373 0.367    98
##  7 Allonzo T~ 3.38e6 SG       23 NYK      64     3  1459   232   518 0.448    52
##  8 Andre Ing~ 7.62e4 SG       33 LAL       4     0    15     0     6 0         0
##  9 Anfernee ~ 1.84e6 SG       19 POR      20     1   141    28    63 0.444    10
## 10 Antonio B~ 1.35e6 SG       22 CHI      57     3   829   166   396 0.419    36
## # ... with 166 more rows, and 34 more variables: x3PA <dbl>, x3Pp <dbl>,
## #   x2P <dbl>, x2PA <dbl>, x2Pp <dbl>, eFGp <dbl>, FT <dbl>, FTA <dbl>,
## #   FTp <dbl>, ORB <dbl>, DRB <dbl>, TRB <dbl>, AST <dbl>, STL <dbl>,
## #   BLK <dbl>, TOV <dbl>, PF <dbl>, PTS <dbl>, PTS_per_min <dbl>,
## #   PPM_category <chr>, FG_z <dbl>, FG_category <chr>, RB_per_game <dbl>,
## #   RB_category <chr>, TOV_per_game <dbl>, TOV_category <chr>,
## #   AST_per_game <dbl>, AST_category <chr>, FG_per_game <dbl>,
## #   x3P_per_game <dbl>, x2P_per_game <dbl>, FT_per_game <dbl>,
## #   PTS_per_game <dbl>, exp_PTS <dbl>

## SF
players_SF <- filter(players, Pos == "SF")
players_SF

## # A tibble: 118 x 46
##    player     salary Pos     Age Tm        G    GS    MP    FG   FGA   FGp   x3P
##    <chr>       <dbl> <chr> <dbl> <chr> <dbl> <dbl> <dbl> <dbl> <dbl> <dbl> <dbl>
##  1 Abdel Nad~ 1.38e6 SF       25 OKC      61     1   694    91   215 0.423    32
##  2 Alfonzo M~ 1.35e6 SF       26 GSW      72     5  1003   134   275 0.487    42
##  3 Andre Igu~ 1.60e7 SF       35 GSW      68    13  1578   151   302 0.5      48
##  4 Andrew Wi~ 2.55e7 SF       23 MIN      73    73  2543   498  1209 0.412   118
##  5 BJ Johnson 1.42e5 SF       23 SAC       1     0     6     1     2 0.5       0
##  6 BJ Johnson 1.42e5 SF       23 ATL       6     0    43     8    16 0.5       3
##  7 BJ Johnson 1.42e5 SF       23 TOT       7     0    49     9    18 0.5       3
##  8 Bojan Bog~ 1.05e7 SF       29 IND      81    81  2573   522  1051 0.497   164
##  9 Bonzie Co~ 7.72e4 SF       23 MIL       8     2    98    13    39 0.333     5
## 10 Brandon I~ 5.76e6 SF       21 LAL      52    52  1760   362   729 0.497    31
## # ... with 108 more rows, and 34 more variables: x3PA <dbl>, x3Pp <dbl>,
## #   x2P <dbl>, x2PA <dbl>, x2Pp <dbl>, eFGp <dbl>, FT <dbl>, FTA <dbl>,
## #   FTp <dbl>, ORB <dbl>, DRB <dbl>, TRB <dbl>, AST <dbl>, STL <dbl>,
## #   BLK <dbl>, TOV <dbl>, PF <dbl>, PTS <dbl>, PTS_per_min <dbl>,
## #   PPM_category <chr>, FG_z <dbl>, FG_category <chr>, RB_per_game <dbl>,
## #   RB_category <chr>, TOV_per_game <dbl>, TOV_category <chr>,
## #   AST_per_game <dbl>, AST_category <chr>, FG_per_game <dbl>,
## #   x3P_per_game <dbl>, x2P_per_game <dbl>, FT_per_game <dbl>,
## #   PTS_per_game <dbl>, exp_PTS <dbl>

## PF
players_PF <- filter(players, Pos == "PF")
players_PF

## # A tibble: 147 x 46
##    player     salary Pos     Age Tm        G    GS    MP    FG   FGA   FGp   x3P
##    <chr>       <dbl> <chr> <dbl> <chr> <dbl> <dbl> <dbl> <dbl> <dbl> <dbl> <dbl>
##  1 Aaron Gor~ 2.16e7 PF       23 ORL      78    78  2633   470  1046 0.449   121
##  2 Alan Will~ 7.72e4 PF       26 BRK       5     0    26     8    13 0.615     0
##  3 Alex Poyt~ 7.72e4 PF       25 ATL      21     1   305    40    81 0.494     9
##  4 Al-Farouq~ 6.96e6 PF       28 POR      81    81  2292   257   593 0.433    96
##  5 Alize Joh~ 8.38e5 PF       22 IND      14     0    64     4    16 0.25      1
##  6 Amile Jef~ 7.72e4 PF       25 ORL      12     0    68    10    16 0.625     0
##  7 Anthony T~ 5.75e6 PF       33 MIN      65     0  1079    99   259 0.382    81
##  8 Blake Gri~ 3.19e7 PF       29 DET      75    75  2622   619  1341 0.462   189
##  9 Bobby Por~ 2.49e6 PF       23 CHI      22     6   531   122   271 0.45     27
## 10 Bobby Por~ 2.49e6 PF       23 WAS      28    22   768   157   357 0.44     48
## # ... with 137 more rows, and 34 more variables: x3PA <dbl>, x3Pp <dbl>,
## #   x2P <dbl>, x2PA <dbl>, x2Pp <dbl>, eFGp <dbl>, FT <dbl>, FTA <dbl>,
## #   FTp <dbl>, ORB <dbl>, DRB <dbl>, TRB <dbl>, AST <dbl>, STL <dbl>,
## #   BLK <dbl>, TOV <dbl>, PF <dbl>, PTS <dbl>, PTS_per_min <dbl>,
## #   PPM_category <chr>, FG_z <dbl>, FG_category <chr>, RB_per_game <dbl>,
## #   RB_category <chr>, TOV_per_game <dbl>, TOV_category <chr>,
## #   AST_per_game <dbl>, AST_category <chr>, FG_per_game <dbl>,
## #   x3P_per_game <dbl>, x2P_per_game <dbl>, FT_per_game <dbl>,
## #   PTS_per_game <dbl>, exp_PTS <dbl>

## C
players_C <- filter(players, Pos == "C")
players_C

## # A tibble: 120 x 46
##    player     salary Pos     Age Tm        G    GS    MP    FG   FGA   FGp   x3P
##    <chr>       <dbl> <chr> <dbl> <chr> <dbl> <dbl> <dbl> <dbl> <dbl> <dbl> <dbl>
##  1 Al Horford 2.89e7 C        32 BOS      68    68  1973   387   723 0.535    73
##  2 Alex Len   4.35e6 C        25 ATL      77    31  1544   320   648 0.494    74
##  3 Amir John~ 2.39e6 C        31 PHI      51     6   529    79   157 0.503    12
##  4 Andre Dru~ 2.54e7 C        25 DET      79    79  2647   561  1052 0.533     5
##  5 Andrew Bo~ 4.87e5 C        34 GSW      11     5   134    18    36 0.5       0
##  6 Angel Del~ 7.72e4 C        24 LAC       2     0    15     1     5 0.2       0
##  7 Ante Zizic 1.95e6 C        22 CLE      59    25  1082   183   331 0.553     0
##  8 Anthony D~ 2.54e7 C        25 NOP      56    56  1850   530  1026 0.517    48
##  9 Aron Bayn~ 5.19e6 C        32 BOS      51    18   821   105   223 0.471    21
## 10 Bam Adeba~ 2.96e6 C        21 MIA      82    28  1913   280   486 0.576     3
## # ... with 110 more rows, and 34 more variables: x3PA <dbl>, x3Pp <dbl>,
## #   x2P <dbl>, x2PA <dbl>, x2Pp <dbl>, eFGp <dbl>, FT <dbl>, FTA <dbl>,
## #   FTp <dbl>, ORB <dbl>, DRB <dbl>, TRB <dbl>, AST <dbl>, STL <dbl>,
## #   BLK <dbl>, TOV <dbl>, PF <dbl>, PTS <dbl>, PTS_per_min <dbl>,
## #   PPM_category <chr>, FG_z <dbl>, FG_category <chr>, RB_per_game <dbl>,
## #   RB_category <chr>, TOV_per_game <dbl>, TOV_category <chr>,
## #   AST_per_game <dbl>, AST_category <chr>, FG_per_game <dbl>,
## #   x3P_per_game <dbl>, x2P_per_game <dbl>, FT_per_game <dbl>,
## #   PTS_per_game <dbl>, exp_PTS <dbl>
…
